…
- vocals_lally_sum:

  running total of songs with lead vocals by Joe Lally in this show

## Source

https://www.dischord.com/fugazi_live_series

https://web.archive.org/web/20201112000517/http://en.wikipedia.org/wiki/Fugazi_discography

## Examples

``` r
  Repeatr3
#> # A tibble: 879,038 × 34
#>    gid    case song_number   alt choice yearsold vocals_mackaye vocals_picciotto
#>    <chr> <int>       <int> <dbl>  <dbl>    <int>          <int>            <int>
#>  1 wash…     1           1    36      0        0              0                0
#>  2 wash…     1           1    43      0        0              0                0
#>  3 wash…     1           1    45      1        0              0                0
#>  4 wash…     1           1    55      0        0              0                0
#>  5 wash…     1           1    78      0        0              0                0
#>  6 wash…     1           1    87      0        0              0                0
#>  7 wash…     1           1    88      0        0              0                0
#>  8 wash…     1           1    92      0        0              0                0
#>  9 wash…     3           3    36      0        0              1                0
#> 10 wash…     3           3    43      0        0              1                0
#> # ℹ 879,028 more rows
#> # ℹ 26 more variables: vocals_lally <int>, instrumental <int>,
#> #   first_song <dbl>, last_song <dbl>, duration_seconds <int>,
#> #   yearsold_0 <int>, yearsold_1 <int>, yearsold_2 <int>, yearsold_3 <int>,
#> #   yearsold_4 <int>, yearsold_5 <int>, yearsold_6 <int>, yearsold_7 <int>,
#> #   yearsold_8 <int>, yearsold_1_vp <int>, yearsold_2_vp <int>,
#> #   yearsold_3_vp <int>, yearsold_4_vp <int>, yearsold_5_vp <int>, …
```
