…
- first_song_instrumental:

  1 if first song of the show and instrumental, 0 otherwise

## Source

https://www.dischord.com/fugazi_live_series

https://web.archive.org/web/20201112000517/http://en.wikipedia.org/wiki/Fugazi_discography

## Examples

``` r
  Repeatr2
#> # A tibble: 879,038 × 24
#>     case gid        date        year launchdate yearsold song_number   alt song 
#>    <int> <chr>      <date>     <dbl> <date>        <dbl>       <dbl> <dbl> <chr>
#>  1     1 washingto… 1987-09-03  1987 1987-09-03        0           1    36 furn…
#>  2     1 washingto… 1987-09-03  1987 1987-09-03        0           1    43 in d…
#>  3     1 washingto… 1987-09-03  1987 1987-09-03        0           1    45 joe …
#>  4     1 washingto… 1987-09-03  1987 1987-09-03        0           1    55 merc…
#>  5     1 washingto… 1987-09-03  1987 1987-09-03        0           1    78 song…
#>  6     1 washingto… 1987-09-03  1987 1987-09-03        0           1    87 the …
#>  7     1 washingto… 1987-09-03  1987 1987-09-03        0           1    88 turn…
#>  8     1 washingto… 1987-09-03  1987 1987-09-03        0           1    92 wait…
#>  9     3 washingto… 1987-09-03  1987 1987-09-03        0           3    36 furn…
#> 10     3 washingto… 1987-09-03  1987 1987-09-03        0           3    43 in d…
#> # ℹ 879,028 more rows
#> # ℹ 15 more variables: choice <dbl>, played <dbl>, available_rl <dbl>,
#> #   available_gl <dbl>, first_song <dbl>, last_song <dbl>, releaseid <int>,
#> #   release <chr>, track_number <int>, instrumental <int>,
#> #   vocals_picciotto <int>, vocals_mackaye <int>, vocals_lally <int>,
#> #   duration_seconds <int>, first_song_instrumental <dbl>
```
