Link Tracks • Repeatr
…
mydf <- othervariables %>% group_by(tour, country) %>% summarise(shows = n()) %>% ungroup()
#> `summarise()` has grouped output by 'tour'. You can override using the
#> `.groups` argument.

mydf2 <- mydf %>% filter(tour=="1990 Fall European Tour" | tour == "1995 Spring/Summer European Tour") %>% pivot_wider(names_from = tour, values_from = shows)

mydf2[is.na(mydf2)] <- 0

mydf2
#> # A tibble: 21 × 3
#>    country          `1990 Fall European Tour` `1995 Spring/Summer European Tour`
#>    <chr>                                <int>                              <int>
#>  1 Austria                                  3                                  2
#>  2 Belgium                                  2                                  2
#>  3 Denmark                                  1                                  1
#>  4 England                                  8                                  6
#>  5 France                                   6                                 10
#>  6 Germany                                 11                                  9
#>  7 Ireland                                  1                                  1
#>  8 Italy                                    6                                 10
#>  9 Netherlands                              8                                  4
#> 10 Northern Ireland                         1                                  1
#> # … with 11 more rows
…
venues <- mydf %>% 
  group_by(city, venue) %>% 
  summarize(shows = n()) %>% 
  ungroup()
#> `summarise()` has grouped output by 'city'. You can override using the
#> `.groups` argument.

venues_per_city <- venues %>% 
  group_by(city) %>% 
  summarize(venues = n()) %>% 
  arrange(desc(venues)) %>% 
  ungroup()

venues_per_city
#> # A tibble: 406 × 2
#>    city          venues
#>    <chr>          <int>
#>  1 Washington        22
#>  2 New York          10
#>  3 Sydney             8
#>  4 Chicago            7
#>  5 Houston            7
#>  6 Berlin             6
#>  7 London             6
#>  8 Richmond           6
#>  9 San Francisco      6
#> 10 Birmingham         5
#> # … with 396 more rows
…
