Fugazi song duration summary data — duration_summary • Repeatr
…
minutes_sd
The standard deviation of the duration - this is a measure of spread, it indicates how much variation there is across all of the renditions.

minutes_total
The total duration of all the times the song was played.

    Source

    https://www.dischord.com/fugazi_live_series

    Examples

  duration_summary
#> # A tibble: 94 × 8
#>    song                 rendit…¹ minut…² minut…³ minut…⁴ minut…⁵ minut…⁶ minut…⁷
#>    <chr>                   <int>   <dbl>   <dbl>   <dbl>   <dbl>   <dbl>   <dbl>
#>  1 23 beats off               26    3.2     3.78    4.6     3.77    0.27    98.0
#>  2 and the same              375    0.62    4.43    8.57    4.48    0.63  1680  
#>  3 argument                   66    0.57    4.7     6.58    4.73    0.86   312. 
#>  4 arpeggiator               154    0.8     3.83    5.32    3.85    0.45   593. 
#>  5 back to base              136    1.53    1.7     3.48    1.77    0.23   241. 
#>  6 bad mouth                 279    0.25    2.48    5.6     2.56    0.4    714. 
#>  7 bed for the scraping      299    1.42    2.98    5.03    3.03    0.35   906. 
#>  8 birthday pony             199    0.27    2.4     7.48    2.44    0.48   486. 
#>  9 blueprint                 584    1.35    3.63    5.7     3.74    0.47  2184. 
#> 10 break                     171    0.87    2.07    6.48    2.13    0.43   364. 
#> # … with 84 more rows, and abbreviated variable names ¹​renditions,
#> #   ²​minutes_min, ³​minutes_median, ⁴​minutes_max, ⁵​minutes_mean, ⁶​minutes_sd,
#> #   ⁷​minutes_total
…
