Fugazi Live Series choice data in long format with related discography data — Repeatr2 • Repeatr
…
duration_secondsThe duration of the song in seconds

first_song_instrumental1 if first song of the show and instrumental, 0 otherwise

    Source

    https://www.dischord.com/fugazi_live_series

https://web.archive.org/web/20201112000517/http://en.wikipedia.org/wiki/Fugazi_discography

    Examples

  Repeatr2
#> # A tibble: 852,592 x 24
#>     case gid      date        year launchdate yearsold song_number   alt song   
#>    <int> <chr>    <date>     <dbl> <date>        <dbl>       <int> <dbl> <chr>  
#>  1     1 washing~ 1987-09-03  1987 1987-09-03        0           1     1 waitin~
#>  2     1 washing~ 1987-09-03  1987 1987-09-03        0           1     5 mercha~
#>  3     1 washing~ 1987-09-03  1987 1987-09-03        0           1    17 song #1
#>  4     1 washing~ 1987-09-03  1987 1987-09-03        0           1    58 joe #1 
#>  5     1 washing~ 1987-09-03  1987 1987-09-03        0           1    66 furnit~
#>  6     1 washing~ 1987-09-03  1987 1987-09-03        0           1    81 the wo~
#>  7     1 washing~ 1987-09-03  1987 1987-09-03        0           1    84 in def~
#>  8     1 washing~ 1987-09-03  1987 1987-09-03        0           1    89 turn o~
#>  9     2 washing~ 1987-09-03  1987 1987-09-03        0           2     1 waitin~
#> 10     2 washing~ 1987-09-03  1987 1987-09-03        0           2     5 mercha~
#> # ... with 852,582 more rows, and 15 more variables: choice <dbl>,
#> #   played <dbl>, available_rl <dbl>, available_gl <dbl>, first_song <dbl>,
#> #   last_song <dbl>, releaseid <int>, release <chr>, track_number <int>,
#> #   instrumental <int>, vocals_picciotto <int>, vocals_mackaye <int>,
#> #   vocals_lally <int>, duration_seconds <int>, first_song_instrumental <dbl>
…
