Fugazi Live Series data in long format with related discography data — Repeatr1 • Repeatr
…
vocals_lallyindicates whether or not Joe Lally sang lead vocals on this track

duration_secondsThe duration of the song in seconds

    Source

    https://www.dischord.com/fugazi_live_series

https://web.archive.org/web/20201112000517/http://en.wikipedia.org/wiki/Fugazi_discography

    Examples

  Repeatr1
#> # A tibble: 17,297 x 19
#>    gid      date        year month   day song_number songid song    number_songs
#>    <chr>    <date>     <dbl> <dbl> <int>       <int>  <int> <chr>          <int>
#>  1 washing~ 1987-09-03  1987     9     3           1     58 joe #1             8
#>  2 washing~ 1987-09-03  1987     9     3           2     17 song #1            8
#>  3 washing~ 1987-09-03  1987     9     3           3     66 furnit~            8
#>  4 washing~ 1987-09-03  1987     9     3           4      5 mercha~            8
#>  5 washing~ 1987-09-03  1987     9     3           5     89 turn o~            8
#>  6 washing~ 1987-09-03  1987     9     3           6     84 in def~            8
#>  7 washing~ 1987-09-03  1987     9     3           7      1 waitin~            8
#>  8 washing~ 1987-09-03  1987     9     3           8     81 the wo~            8
#>  9 washing~ 1987-09-26  1987     9    26           1     89 turn o~            8
#> 10 washing~ 1987-09-26  1987     9    26           2     17 song #1            8
#> # ... with 17,287 more rows, and 10 more variables: first_song <dbl>,
#> #   last_song <dbl>, releaseid <int>, release <chr>, track_number <int>,
#> #   instrumental <int>, vocals_picciotto <int>, vocals_mackaye <int>,
#> #   vocals_lally <int>, duration_seconds <int>
…
