compares the setlists of two or more shows. — sets • Repeatr
…
mydf
the dataframe to use. must contain the columns "gid" and "song".

shows
a list of show ids

    Details

    sets

    Examples

sets <- sets(mydf = duration_data_da, shows = c("aalst-belgium-92390", "aberdeen-scotland-50499", "leeds-england-103102", "washington-dc-usa-73198"))
sets[[1]]
#> # A tibble: 60 × 6
#>    song      `aalst-belgium-92390` aberdeen-scotland-50…¹ `leeds-england-103102`
#>    <chr>                     <dbl>                  <dbl>                  <dbl>
#>  1 arpeggia…                     0                      1                      1
#>  2 bed for …                     0                      1                      1
#>  3 closed c…                     0                      1                      1
#>  4 reclamat…                     1                      0                      1
#>  5 back to …                     0                      1                      1
#>  6 blueprint                     1                      0                      1
#>  7 break                         0                      1                      0
#>  8 bulldog …                     1                      0                      1
#>  9 foreman'…                     0                      1                      0
#> 10 merchand…                     1                      1                      0
#> # ℹ 50 more rows
#> # ℹ abbreviated name: ¹​`aberdeen-scotland-50499`
#> # ℹ 2 more variables: `washington-dc-usa-73198` <dbl>, shows <dbl>
…
