Tours data — toursdata • Repeatr
…
startyear
Year in which the tour started

endyear
Year in which the tour ended

    Source

    https://www.dischord.com/fugazi_live_series

    Examples

  toursdata
#> # A tibble: 76 × 9
#>    tour      start      end        shows durat…¹ atten…² meana…³ start…⁴ endyear
#>    <chr>     <date>     <date>     <int>   <int>   <int>   <int>   <dbl>   <dbl>
#>  1 1990 Fal… 1990-09-01 1990-11-07    60      67   43409     723    1990    1990
#>  2 1995 Spr… 1995-05-04 1995-07-14    59      71   70894    1201    1995    1995
#>  3 1992 Spr… 1992-05-01 1992-07-11    56      71   55412     989    1992    1992
#>  4 1995 Fal… 1995-09-16 1995-11-20    50      65   68903    1378    1995    1995
#>  5 1993 Spr… 1993-04-02 1993-05-31    48      59   74550    1553    1993    1993
#>  6 1990 Spr… 1990-05-02 1990-06-30    43      59   24080     560    1990    1990
#>  7 1988 Fal… 1988-10-14 1988-12-16    39      63    5277     135    1988    1988
#>  8 1993 Fal… 1993-08-16 1993-09-29    39      44   58075    1489    1993    1993
#>  9 1991 Spr… 1991-05-01 1991-06-14    38      44   27273     717    1991    1991
#> 10 1989 Spr… 1989-04-05 1989-06-16    35      72   11128     317    1989    1989
#> # … with 66 more rows, and abbreviated variable names ¹​duration, ²​attendance,
#> #   ³​meanattendance, ⁴​startyear
…
