…
venues <- mydf %>% 
  group_by(city, venue) %>% 
  summarize(shows = n()) %>% 
  ungroup()
#> `summarise()` has grouped output by 'city'. You can override using the
#> `.groups` argument.

venues_per_city <- venues %>% 
  group_by(city) %>% 
  summarize(venues = n()) %>% 
  arrange(desc(venues)) %>% 
  ungroup()

venues_per_city
#> # A tibble: 406 × 2
#>    city          venues
#>    <chr>          <int>
#>  1 Washington        21
#>  2 New York          10
#>  3 Sydney             8
#>  4 Chicago            7
#>  5 Houston            7
#>  6 Berlin             6
#>  7 London             6
#>  8 Richmond           6
#>  9 San Francisco      6
#> 10 Birmingham         5
#> # ℹ 396 more rows
```
…
